{
  "EDITOR_STATE": {
    "allProjectFiles": {
      "2181dfbf-5e3e-46bf-b086-beafd2c26757": {
        "id": "2181dfbf-5e3e-46bf-b086-beafd2c26757",
        "parent": null,
        "name": "signal",
        "type": "DIRECTORY",
        "isDirectory": true,
        "children": [
          "58ad9cc1-5e39-4c3e-901d-a5c295ee0604",
          "7a20b413-94ba-4d1d-9241-96409725ce45"
        ],
        "isRemovable": false,
        "filePath": "signal"
      },
      "58ad9cc1-5e39-4c3e-901d-a5c295ee0604": {
        "id": "58ad9cc1-5e39-4c3e-901d-a5c295ee0604",
        "parent": "2181dfbf-5e3e-46bf-b086-beafd2c26757",
        "name": "send-texts.js",
        "type": "LAMBDA_FILE",
        "isDirectory": false,
        "children": [],
        "isRemovable": true,
        "filePath": "signal/send-texts.js",
        "code": "let AWS = require('aws-sdk');\n//Variables\nconst sns = new AWS.SNS();\n\n//Functions\nconst publishMessage = (message, subject, sender) => {\n    return sns.publish({\n        Message: message,\n        Subject: subject,\n        MessageAttributes: {\n            'senderID': {\n                DataType: 'String',\n                StringValue: sender\n            }\n        },\n        MessageStructure: 'String',\n        TopicArn: 'arn:aws:sns:us-west-2:081758618601:signal-f1'\n    }).promise()\n}\n\n//Logic\n\nexports.handler = function (event, context, callback) {\n    let subject = event['subject'];\n    let sender = event['sender'];\n    let message = event['message'];\n    \n\n    publishMessage(message, subject, sender).then(data => {\n        callback(null, { \"message\": \"Messages Sent to Topic\" });\n    }).catch(err => {\n        callback(null, { \"message\": err });\n    });\n}",
        "triggers": [
          {
            "resourceName": "apigusWest2SendTextsendTextpost",
            "config": {}
          }
        ],
        "config": {
          "runtime": "nodejs8.10",
          "handler": "handler",
          "timeout": 60,
          "memory": 128,
          "layers": []
        },
        "testCases": {
          "d5e4d152-1167-4c3d-b9cd-3f8e60bb6274": {
            "id": "d5e4d152-1167-4c3d-b9cd-3f8e60bb6274",
            "name": "Test Email",
            "functionId": "58ad9cc1-5e39-4c3e-901d-a5c295ee0604",
            "event": "{\n \"subject\": \"F1 Race - Australia\",\n \"sender\": \"SignalF1\",\n \"message\": \"A race is about to start!\"\n}"
          }
        }
      },
      "7a20b413-94ba-4d1d-9241-96409725ce45": {
        "id": "7a20b413-94ba-4d1d-9241-96409725ce45",
        "parent": "2181dfbf-5e3e-46bf-b086-beafd2c26757",
        "name": "sign-up.js",
        "type": "LAMBDA_FILE",
        "isDirectory": false,
        "children": [],
        "isRemovable": true,
        "filePath": "signal/sign-up.js",
        "code": "//Variables\nconst AWS = require('aws-sdk');\nconst phoneLib = require('phone')\nconst sns = new AWS.SNS();\nconst ddb = new AWS.DynamoDB.DocumentClient();\nconst dynamoTable = 'signal-users'; //Test\nconst middy = require('middy')\nconst { urlEncodeBodyParser, validator, httpErrorHandler } = require('middy/middlewares')\n\n//Functions\nconst addContact = (contactID, phone, phoneCountry) => {\n    return ddb.put({\n        TableName: 'signal-users',\n        Item: {\n            'id': contactID,\n            'phone': phone,\n            'country': phoneCountry,\n            'time': Date.now()\n        }\n    })\n}\n\nconst sesSubscribe = (phone, phoneCountry) => {\n    return sns.subscribe({\n        Protocol: 'sms',\n        Endpoint: phone,\n        TopicArn: 'arn:aws:sns:us-west-2:081758618601:signal-f1'\n    }).promise();\n}\n\n//Logic\n exports.handler = async (event, context, callback) => {\n    let phone = event['phone'];\n    let phoneCountry = phoneLib(phone)[1] || '';\n\n    if (phone.length && phoneCountry.length) {\n\n        try {\n            const subscribe = await sesSubscribe(phone, phoneCountry);\n            await addContact(subscribe.SubscriptionArn,phone,phoneCountry)\n            callback(null, { \"message\": \"Success\" });\n        } catch(error){\n            callback(null, { \"message\": err });\n        }\n\n    } else {\n        var response = {\n            status: 400,\n            message:\"Error: The Phone Number is not valid, try adding your country prefix (Example +1)\"\n        }\n        callback(JSON.stringify(response));\n    }\n}",
        "triggers": [
          {
            "resourceName": "apigusWest2signalSignUpsignUppost",
            "config": {}
          }
        ],
        "config": {
          "runtime": "nodejs8.10",
          "handler": "handler",
          "timeout": 60,
          "memory": 128,
          "layers": []
        },
        "testCases": {
          "d206a2b0-a7b0-47c9-9b77-abd9b33baac6": {
            "id": "d206a2b0-a7b0-47c9-9b77-abd9b33baac6",
            "name": "Test Add Contact",
            "functionId": "7a20b413-94ba-4d1d-9241-96409725ce45",
            "event": "{\n \"phone\": \"+16048321723\"\n}"
          }
        }
      }
    },
    "deletedFiles": [],
    "rootNode": "2181dfbf-5e3e-46bf-b086-beafd2c26757",
    "openFiles": [
      "58ad9cc1-5e39-4c3e-901d-a5c295ee0604",
      "7a20b413-94ba-4d1d-9241-96409725ce45"
    ],
    "currentFileId": "7a20b413-94ba-4d1d-9241-96409725ce45",
    "resources": {
      "apigusWest2SendTextsendTextpost": {
        "name": "apigusWest2SendTextsendTextpost",
        "type": "API_GATEWAY",
        "config": {
          "selectedRegion": "us-west-2",
          "apiMode": 0,
          "apiName": "Send Text",
          "endpointType": "REGIONAL",
          "resourceMode": 0,
          "resourceName": "send-text",
          "resourcePath": "/send-text",
          "restMethod": "POST",
          "proxyIntegration": false,
          "enableCORS": false,
          "stageMode": 0,
          "stageName": "production"
        },
        "globallyEditable": false
      },
      "apigusWest2signUpsignUppost": {
        "name": "apigusWest2signUpsignUppost",
        "type": "API_GATEWAY",
        "config": {
          "selectedRegion": "us-west-2",
          "apiMode": 0,
          "apiName": "sign-up",
          "endpointType": "REGIONAL",
          "resourceMode": 0,
          "resourceName": "sign-up",
          "resourcePath": "/sign-up",
          "restMethod": "POST",
          "proxyIntegration": false,
          "enableCORS": true,
          "stageMode": 0,
          "stageName": "production"
        },
        "globallyEditable": false
      },
      "ddbsignalUsers": {
        "name": "ddbsignalUsers",
        "type": "DynamoDB",
        "config": {
          "mode": 0,
          "operation": "put",
          "table": {
            "arn": "",
            "name": "signal-users",
            "partitionKey": "id",
            "partitionKeyType": "S",
            "hasSortKey": false,
            "sortKey": "",
            "sortKeyType": "S",
            "mode": 0
          },
          "parameters": {
            "TableName": "@{dynamoTable}",
            "Item": {
              "id": "@{contactID}",
              "phone": "@{phone}",
              "country": "@{phoneCountry}",
              "time": "@{Date.now()}"
            }
          },
          "triggerParams": {},
          "validator": {
            "validatableFields": {},
            "validity": true
          },
          "valid": true
        },
        "globallyEditable": false
      },
      "snsusWest2signalF1": {
        "name": "snsusWest2signalF1",
        "type": "SNS",
        "config": {
          "topicMode": 1,
          "topicName": "signal-f1",
          "topicArn": "arn:aws:sns:us-west-2:081758618601:signal-f1",
          "topicRegion": "us-west-2",
          "snsType": 0,
          "subscriptions": []
        },
        "globallyEditable": true
      },
      "apigusWest2signalSignUpsignUppost": {
        "name": "apigusWest2signalSignUpsignUppost",
        "type": "API_GATEWAY",
        "config": {
          "selectedRegion": "us-west-2",
          "apiMode": 0,
          "apiName": "signal-sign-up",
          "endpointType": "REGIONAL",
          "resourceMode": 0,
          "resourceName": "sign-up",
          "resourcePath": "/sign-up",
          "restMethod": "POST",
          "proxyIntegration": false,
          "enableCORS": true,
          "stageMode": 0,
          "stageName": "production"
        },
        "globallyEditable": false
      },
      "ddbcake": {
        "name": "ddbcake",
        "type": "DynamoDB",
        "config": {
          "mode": 0,
          "operation": "put",
          "table": {
            "arn": "",
            "name": "cake",
            "partitionKey": "id",
            "partitionKeyType": "S",
            "hasSortKey": false,
            "sortKey": "",
            "sortKeyType": "S",
            "mode": 0
          },
          "parameters": {
            "Key": {},
            "Item": {
              "id": "hello"
            },
            "ExpressionAttributeValues": {}
          },
          "triggerParams": {},
          "validator": {
            "validatableFields": {},
            "validity": true
          },
          "valid": true
        },
        "globallyEditable": false
      }
    },
    "customTemplate": {
      "dialect": null,
      "definitions": {}
    },
    "envVariables": [
      {
        "lambdaId": "all",
        "varKey": "SIGMA_AWS_ACC_ID",
        "varValue": null,
        "shouldPersist": false,
        "displayOnly": false,
        "editable": false
      }
    ],
    "packageJSON": {
      "dependencies": {
        "aws-sdk": {
          "name": "aws-sdk",
          "version": "2.176.0",
          "dev": true,
          "notRemovable": false
        },
        "uuid": {
          "name": "uuid",
          "version": "3.3.2"
        },
        "phone": {
          "name": "phone",
          "version": "2.3.7"
        },
        "middy": {
          "name": "middy",
          "version": "0.24.0"
        }
      }
    }
  },
  "PROJECT_META": {
    "projectName": "signal",
    "projectDescription": "",
    "projectVersion": "1.0.0",
    "projectRegion": "us-west-2",
    "platform": "AWS",
    "platformRegions": {},
    "lastSave": 1554096768524
  },
  "VCS_STATE": {
    "provider": "BitBucket",
    "repo": {
      "name": "signal",
      "url": "https://bitbucket.org/karsonenns/signal"
    }
  }
}